…
``` r
library(readxl)
```

``` r
# 1. Load data
df_raw <- read_excel("E:/Semester 5/Workshop Analitika Data Terapan/Data Asli simandiri 2024.xlsx")          
df <- df_raw
df
```

    ## # A tibble: 340 × 26
    ##    NOMOR TAHUN  UMMB MAHASISWA_JALUR_PENERIMAAN JALUR_PENERIMAAN
    ##    <dbl> <dbl> <dbl>                      <dbl> <chr>           
    ##  1 72497  2024    25                          4 SIMANDIRI       
    ##  2 73378  2024    25                          4 SIMANDIRI       
    ##  3 72161  2024    25                          4 SIMANDIRI       
    ##  4 74162  2024    25                          4 SIMANDIRI       
    ##  5 72572  2024    25                          4 SIMANDIRI       
    ##  6 73473  2024    25                          4 SIMANDIRI       
    ##  7 72134  2024    25                          4 SIMANDIRI       
    ##  8 74062  2024    25                          4 SIMANDIRI       
    ##  9 73909  2024    25                          4 SIMANDIRI       
    ## 10 73952  2024    25                          4 SIMANDIRI       
    ## # ℹ 330 more rows
    ## # ℹ 21 more variables: PROGRAM_STUDI_DITERIMA <chr>, NODAFTAR <chr>,
    ## #   NISN <chr>, NAMA <chr>, PENGHASILAN <dbl>, JUMLAH_TANGGUNGAN <dbl>,
    ## #   KEPEMILIKAN_RUMAH <chr>, JUMLAH_RUMAH <chr>, PUNYA_TANAH <chr>,
    ## #   PUNYA_TAMBAK_SAWAH <chr>, PUNYA_GEDUNG <chr>, PUNYA_APARTEMEN <chr>,
    ## #   JUMLAH_MOTOR <chr>, JUMLAH_MOBIL <chr>, DAYA_LISTRIK <chr>, SPI <dbl>,
    ## #   KOTA <chr>, ASAL_SEKOLAH <chr>, AGAMA <dbl>, KOTA_TEMPAT_TINGGAL <chr>, …

``` r
# 2. Drop kolom non-ekonomi
drop_cols <- c("TAHUN", "UMMB", "MAHASISWA_JALUR_PENERIMAAN",
               "JALUR_PENERIMAAN", "NODAFTAR", "NISN", "KOTA",
               "NAMA", "ASAL_SEKOLAH", "AGAMA")

df <- df %>% dplyr::select(-dplyr::any_of(drop_cols))
df
```

    ## # A tibble: 340 × 16
    ##    NOMOR PROGRAM_STUDI_DITERIMA  PENGHASILAN JUMLAH_TANGGUNGAN KEPEMILIKAN_RUMAH
    ##    <dbl> <chr>                         <dbl>             <dbl> <chr>            
    ##  1 72497 D3-Teknik Telekomunika…     2000000                 2 Sendiri          
    ##  2 73378 D3PSDKU-SM-Teknik Info…     2000000                 5 Kontrak/Sewa     
    ##  3 72161 D3-Teknik Telekomunika…     6020000                 2 Menumpang        
    ##  4 74162 STr-Teknologi Game          5000000                 2 Sendiri          
    ##  5 72572 STrPJJ-Teknik Telekomu…     1500000                 2 Sendiri          
    ##  6 73473 STr-Sistem Pembangkit …     4000000                 1 Kontrak/Sewa     
    ##  7 72134 STr-Teknik Informatika     20000000                 2 Sendiri          
    ##  8 74062 D3PJJ-Teknik Informati…     3500000                 4 Sendiri          
    ##  9 73909 D3-Teknik Elektro Indu…     2500000                 1 Menumpang        
    ## 10 73952 D3-Teknik Telekomunika…     2500000                 3 Menumpang        
    ## # ℹ 330 more rows
    ## # ℹ 11 more variables: JUMLAH_RUMAH <chr>, PUNYA_TANAH <chr>,
    ## #   PUNYA_TAMBAK_SAWAH <chr>, PUNYA_GEDUNG <chr>, PUNYA_APARTEMEN <chr>,
    ## #   JUMLAH_MOTOR <chr>, JUMLAH_MOBIL <chr>, DAYA_LISTRIK <chr>, SPI <dbl>,
    ## #   KOTA_TEMPAT_TINGGAL <chr>, PROPINSI_TEMPAT_TINGGAL <chr>

``` r
# 3. Normalisasi string
df <- df %>% dplyr::mutate(across(where(is.character), ~str_trim(.)))
df
```

    ## # A tibble: 340 × 16
    ##    NOMOR PROGRAM_STUDI_DITERIMA  PENGHASILAN JUMLAH_TANGGUNGAN KEPEMILIKAN_RUMAH
    ##    <dbl> <chr>                         <dbl>             <dbl> <chr>            
    ##  1 72497 D3-Teknik Telekomunika…     2000000                 2 Sendiri          
    ##  2 73378 D3PSDKU-SM-Teknik Info…     2000000                 5 Kontrak/Sewa     
    ##  3 72161 D3-Teknik Telekomunika…     6020000                 2 Menumpang        
    ##  4 74162 STr-Teknologi Game          5000000                 2 Sendiri          
    ##  5 72572 STrPJJ-Teknik Telekomu…     1500000                 2 Sendiri          
    ##  6 73473 STr-Sistem Pembangkit …     4000000                 1 Kontrak/Sewa     
    ##  7 72134 STr-Teknik Informatika     20000000                 2 Sendiri          
    ##  8 74062 D3PJJ-Teknik Informati…     3500000                 4 Sendiri          
    ##  9 73909 D3-Teknik Elektro Indu…     2500000                 1 Menumpang        
    ## 10 73952 D3-Teknik Telekomunika…     2500000                 3 Menumpang        
    ## # ℹ 330 more rows
    ## # ℹ 11 more variables: JUMLAH_RUMAH <chr>, PUNYA_TANAH <chr>,
    ## #   PUNYA_TAMBAK_SAWAH <chr>, PUNYA_GEDUNG <chr>, PUNYA_APARTEMEN <chr>,
    ## #   JUMLAH_MOTOR <chr>, JUMLAH_MOBIL <chr>, DAYA_LISTRIK <chr>, SPI <dbl>,
    ## #   KOTA_TEMPAT_TINGGAL <chr>, PROPINSI_TEMPAT_TINGGAL <chr>
…
Penjelasan: Mengecek data yang sebelumnya memiliki missing value,
sekarang sudah tidak ada missing value.

``` r
# 7. Convert types
to_integer_cols <- intersect(c("JUMLAH_TANGGUNGAN","JUMLAH_RUMAH","JUMLAH_MOTOR","JUMLAH_MOBIL"), names(df))
for (cname in to_integer_cols){
df[[cname]] <- as.integer(round(as.numeric(df[[cname]])))
}
df
```

    ## # A tibble: 340 × 16
    ##    NOMOR PROGRAM_STUDI_DITERIMA  PENGHASILAN JUMLAH_TANGGUNGAN KEPEMILIKAN_RUMAH
    ##    <dbl> <chr>                         <dbl>             <int> <chr>            
    ##  1 72497 D3-Teknik Telekomunika…     2000000                 2 Sendiri          
    ##  2 73378 D3PSDKU-SM-Teknik Info…     2000000                 5 Sendiri          
    ##  3 72161 D3-Teknik Telekomunika…     6020000                 2 Sendiri          
    ##  4 74162 STr-Teknologi Game          5000000                 2 Sendiri          
    ##  5 72572 STrPJJ-Teknik Telekomu…     1500000                 2 Sendiri          
    ##  6 73473 STr-Sistem Pembangkit …     4000000                 1 Sendiri          
    ##  7 72134 STr-Teknik Informatika     20000000                 2 Sendiri          
    ##  8 74062 D3PJJ-Teknik Informati…     3500000                 4 Sendiri          
    ##  9 73909 D3-Teknik Elektro Indu…     2500000                 1 Menumpang        
    ## 10 73952 D3-Teknik Telekomunika…     2500000                 3 Menumpang        
    ## # ℹ 330 more rows
    ## # ℹ 11 more variables: JUMLAH_RUMAH <int>, PUNYA_TANAH <chr>,
    ## #   PUNYA_TAMBAK_SAWAH <chr>, PUNYA_GEDUNG <chr>, PUNYA_APARTEMEN <chr>,
    ## #   JUMLAH_MOTOR <int>, JUMLAH_MOBIL <int>, DAYA_LISTRIK <chr>, SPI <dbl>,
    ## #   KOTA_TEMPAT_TINGGAL <chr>, PROPINSI_TEMPAT_TINGGAL <chr>
…
Penjelasan: Semua binning dan encoding dilakukan dengan prinsip semakin
tinggi nilai code dan bin berarti semakin tinggi tingkat ekonominya.

``` r
df
```

    ## # A tibble: 340 × 21
    ##    NOMOR PROGRAM_STUDI_DITERIMA  PENGHASILAN JUMLAH_TANGGUNGAN KEPEMILIKAN_RUMAH
    ##    <dbl> <chr>                         <dbl>             <int> <chr>            
    ##  1 72497 D3-Teknik Telekomunika…     2000000                 2 sendiri          
    ##  2 73378 D3PSDKU-SM-Teknik Info…     2000000                 5 sendiri          
    ##  3 72161 D3-Teknik Telekomunika…     6020000                 2 sendiri          
    ##  4 74162 STr-Teknologi Game          5000000                 2 sendiri          
    ##  5 72572 STrPJJ-Teknik Telekomu…     1500000                 2 sendiri          
    ##  6 73473 STr-Sistem Pembangkit …     4000000                 1 sendiri          
    ##  7 72134 STr-Teknik Informatika     20000000                 2 sendiri          
    ##  8 74062 D3PJJ-Teknik Informati…     3500000                 4 sendiri          
    ##  9 73909 D3-Teknik Elektro Indu…     2500000                 1 menumpang        
    ## 10 73952 D3-Teknik Telekomunika…     2500000                 3 menumpang        
    ## # ℹ 330 more rows
    ## # ℹ 16 more variables: JUMLAH_RUMAH <int>, PUNYA_TANAH <dbl>,
    ## #   PUNYA_TAMBAK_SAWAH <dbl>, PUNYA_GEDUNG <dbl>, PUNYA_APARTEMEN <dbl>,
    ## #   JUMLAH_MOTOR <int>, JUMLAH_MOBIL <int>, DAYA_LISTRIK <chr>, SPI <dbl>,
    ## #   KOTA_TEMPAT_TINGGAL <chr>, PROPINSI_TEMPAT_TINGGAL <chr>,
    ## #   DAYA_LISTRIK_enc <dbl>, KEPEMILIKAN_RUMAH_enc <dbl>, PENGHASILAN_bin <dbl>,
    ## #   SPI_bin <dbl>, JUMLAH_TANGGUNGAN_bin <dbl>
…
# Hapus kolom yang tidak bervariasi (standar deviasi 0) untuk menghindari NaN saat scaling
# Ini penting karena banyak variabel 'PUNYA_*' mungkin memiliki nilai yang sama
non_varying_cols <- df_cluster %>%
  dplyr::select(where(is.numeric)) %>%
  purrr::map_lgl(~sd(., na.rm = TRUE) == 0) %>%
  names(.)[.]

df_cluster <- df_cluster %>% dplyr::select(-dplyr::all_of(non_varying_cols))
df_cluster
```

    ## # A tibble: 340 × 10
    ##    PENGHASILAN_bin JUMLAH_TANGGUNGAN_bin JUMLAH_RUMAH JUMLAH_MOTOR JUMLAH_MOBIL
    ##              <dbl>                 <dbl>        <int>        <int>        <int>
    ##  1               2                     3            1            1            0
    ##  2               2                     1            1            2            0
    ##  3               3                     3            1            2            0
    ##  4               2                     3            1            3            1
    ##  5               1                     3            1            1            0
    ##  6               2                     3            1            1            1
    ##  7               4                     3            1            3            1
    ##  8               2                     2            1            2            1
    ##  9               2                     3            0            1            0
    ## 10               2                     2            0            1            0
    ## # ℹ 330 more rows
    ## # ℹ 5 more variables: SPI_bin <dbl>, PUNYA_TANAH <dbl>,
    ## #   PUNYA_TAMBAK_SAWAH <dbl>, DAYA_LISTRIK_enc <dbl>,
    ## #   KEPEMILIKAN_RUMAH_enc <dbl>
…
data_ukt
```

    ## # A tibble: 340 × 14
    ##    NOMOR PROGRAM_STUDI_DITERIMA       PENGHASILAN JUMLAH_TANGGUNGAN JUMLAH_MOTOR
    ##    <dbl> <chr>                              <dbl>             <int>        <int>
    ##  1 72497 D3-Teknik Telekomunikasi         2000000                 2            1
    ##  2 73378 D3PSDKU-SM-Teknik Informati…     2000000                 5            2
    ##  3 72161 D3-Teknik Telekomunikasi         6020000                 2            2
    ##  4 74162 STr-Teknologi Game               5000000                 2            3
    ##  5 72572 STrPJJ-Teknik Telekomunikasi     1500000                 2            1
    ##  6 73473 STr-Sistem Pembangkit Energi     4000000                 1            1
    ##  7 72134 STr-Teknik Informatika          20000000                 2            3
    ##  8 74062 D3PJJ-Teknik Informatika         3500000                 4            2
    ##  9 73909 D3-Teknik Elektro Industri       2500000                 1            1
    ## 10 73952 D3-Teknik Telekomunikasi         2500000                 3            1
    ## # ℹ 330 more rows
    ## # ℹ 9 more variables: JUMLAH_MOBIL <int>, DAYA_LISTRIK <chr>, SPI <dbl>,
    ## #   KOTA_TEMPAT_TINGGAL <chr>, PROPINSI_TEMPAT_TINGGAL <chr>,
    ## #   KEPEMILIKAN_RUMAH <chr>, FCM_cluster <int>, UKT_Level <int>,
    ## #   UKT_Price <dbl>
…
